8 -64 -48 -40 800
-48 32 -24 -32 -40 -64 704
136 -48 792
-8 24 -32 -48 8 -56 -48 712
64 -8 904
992
-48 -64 -72 -24 8 -32 696
992
-32 -40 -24 872
152 -32 32 -448 296
-40 -32 24 -16 -8 -64 -56 -48 640
88 -8 -8 -8 848
-40 232 -104 -112 472
992
168 -8 -72 720
-64 104 -48 56 -24 -112 -64 -40 -72 -272 56
48 -40 -40 -40 792
-64 -40 -40 -32 -64 -72 -40 584
16 -24 -8 920
-16 -16 -8 72 -48 -48 736
