-48 56 -64 800
-40 -64 -16 -56 -40 -32 -32 -16 632
-64 40 -16 848
992
-64 -56 -56 792
-56 48 -48 -56 752
-56 -40 64 -40 -40 -24 680
-16 968
-56 928
-16 968
-72 -32 -16 -48 792
-56 -48 -72 792
32 -40 904
8 -64 904
-64 -16 896
-40 944
992
48 -48 -8 864
992
-64 8 -40 -16 -8 -56 752
-72 912
-40 -32 -48 848
8 -40 -8 32 -8 856
992
-24 -32 920
