24

5
2
-1
5
4
12
-2
-1

8
5
-1
1
3
14
-2
-1

3
3
-1
2
9
17
-2
-1

10
3
-1
4
3
4
-2
-1

1
2
-1
8
5
13
-2
-1

5
3
-1
4
6
12
-2
-1

3
3
-1
5
4
9
-2
-1

9
3
-1
8
9
5
-2
-1

6
1
-1
1
10
8
-2
-1

10
3
-1
1
8
4
-2
-1

10
4
-1
4
5
15
-2
-1

5
2
-1
3
10
12
-2
-1

9
1
-1
9
3
6
-2
-1

3
5
-1
6
7
5
-2
-1

3
3
-1
2
1
12
-2
-1

2
2
-1
9
10
16
-2
-1

5
4
-1
6
6
2
-2
-1

6
3
-1
2
7
8
-2
-1

1
1
-1
2
6
13
-2
-1

6
5
-1
6
7
8
-2
-1

6
1
-1
1
1
9
-2
-1

7
1
-1
3
3
12
-2
-1

5
5
-1
9
1
3
-2
-1

5
1
-1
6
3
1
-2
-1
