21

5
6
7
10
12

10
15
2
7
-4
-2
-2

124
-1

10
5
9
27
2
-1
-1
-1

5
5
5
5
58
9
-5
-5

10
12
13
5
1
9
-3
-4
-1

10
9
13
12
13
12
12
12
1
1
1
1

1
2
6
8
10
11
15

1
1
1
-1
-1
-1

2
3
5
7
10
13
13
1
1
1
1
-7
-1
-4
-3

10
12
16
17
19
3
-1
-2
-3

2
4
16
28
15
17
-1
-2
-2

3
4
7
8
-4
-3
-2

10
30
40
-1

90
4
5
7
9
-1
-4

60
-1
50
20
-2
-1

57
2
3
5
-2
-2
-1
40
34

25
-1
37
26
2
6
7
-5
-2
10

90
20
-2
10
-1
10

2
4
6
2
6
-3
-1
-1
-1
6
7
10
12
-4

20
15
17
-1
-1
-1
67
10
-2
-1
20
1
1
1
1
-1
-1
-1
