-32 16 -32 40 -56 -56 -64 -72 560
16 -8 -72 -104 760
8 -16 -16 -8 -88 816
-40 -32 -72 -24 -80 -128 568
-8 32 -32 -32 -136 712
8 -72 56 -8 -16 -64 -168 544
-24 -32 -32 40 -72 752
-32 -32 -64 -48 -40 736
-80 -8 -16 -40 -80 -240 480
16 -16 40 -8 32 -8 -80 -48 -32 -80 -168 376
24 -64 16 -32 -56 -184 568
-48 16 -24 8 -48 -56 8 -72 648
-32 -264 680
-64 -56 -40 -48 -232 512
-16 -16 -16 -8 -48 -80 -56 -152 536
-8 -64 -72 -120 696
-64 -32 -120 752
-64 -16 -24 864
-56 -200 720
-80 -16 880
-72 -32 872
-40 -40 -32 -56 792
-8 48 -64 -56 784
-40 16 -8 904
64 -8 -80 -16 -200 584
